…
ROC was used to select the optimal model using the largest value.
The final values used for the model were alpha = 0.25 and lambda = 0.001.
   alpha lambda
26  0.25  0.001
# A tibble: 23 × 3
   Variavel_Original Importancia Posicao
   <chr>                   <dbl>   <int>
 1 PAY_0                  0.650        1
 2 BILL_AMT1              0.243        2
 3 PAY_AMT2               0.205        3
 4 PAY_AMT1               0.152        4
 5 EDUCATION              0.136        5
 6 PAY_2                  0.105        6
 7 BILL_AMT3              0.101        7
 8 LIMIT_BAL              0.100        8
 9 PAY_3                  0.0898       9
10 PAY_AMT4               0.0807      10
# ℹ 13 more rows
# ℹ Use `print(n = ...)` to see more rows
…
ROC was used to select the optimal model using the largest value.
The final values used for the model were alpha = 0.25 and lambda = 0.001.
   alpha lambda
26  0.25  0.001
# A tibble: 23 × 3
   Variavel_Original Importancia Posicao
   <chr>                   <dbl>   <int>
 1 PAY_0                  0.650        1
 2 BILL_AMT1              0.243        2
 3 PAY_AMT2               0.205        3
 4 PAY_AMT1               0.152        4
 5 EDUCATION              0.136        5
 6 PAY_2                  0.105        6
 7 BILL_AMT3              0.101        7
 8 LIMIT_BAL              0.100        8
 9 PAY_3                  0.0898       9
10 PAY_AMT4               0.0807      10
# ℹ 13 more rows
# ℹ Use `print(n = ...)` to see more rows
…
=============================
Modelo: avNNet - Top17 
Variaveis: PAY_0, BILL_AMT1, PAY_AMT2, PAY_AMT1, EDUCATION, PAY_2, BILL_AMT3, LIMIT_BAL, PAY_3, PAY_AMT4, MARRIAGE, SEX, AGE, PAY_5, BILL_AMT5, PAY_AMT3, PAY_AMT5 
=============================

=============================
Modelo: avNNet - Top18 
Variaveis: PAY_0, BILL_AMT1, PAY_AMT2, PAY_AMT1, EDUCATION, PAY_2, BILL_AMT3, LIMIT_BAL, PAY_3, PAY_AMT4, MARRIAGE, SEX, AGE, PAY_5, BILL_AMT5, PAY_AMT3, PAY_AMT5, PAY_AMT6 
=============================

=============================
Modelo: avNNet - Top19 
Variaveis: PAY_0, BILL_AMT1, PAY_AMT2, PAY_AMT1, EDUCATION, PAY_2, BILL_AMT3, LIMIT_BAL, PAY_3, PAY_AMT4, MARRIAGE, SEX, AGE, PAY_5, BILL_AMT5, PAY_AMT3, PAY_AMT5, PAY_AMT6, PAY_4 
=============================
# A tibble: 36 × 28
   Modelo  TopN   ROC  Sens  Spec Precision    F1 GMean  mtry   ROCSD SensSD  SpecSD PrecisionSD   F1SD GMeanSD Variaveis   
   <chr>  <int> <dbl> <dbl> <dbl>     <dbl> <dbl> <dbl> <dbl>   <dbl>  <dbl>   <dbl>       <dbl>  <dbl>   <dbl> <chr>       
 1 NNET      19 0.776 0.373 0.947     0.665 0.478 0.594    NA 0.0112  0.0146 0.00210      0.0124 0.0144  0.0116 PAY_0, BILL…
 2 NNET      15 0.776 0.373 0.948     0.671 0.480 0.595    NA 0.0140  0.0143 0.00202      0.0120 0.0141  0.0113 PAY_0, BILL…
 3 NNET      12 0.775 0.365 0.950     0.676 0.474 0.589    NA 0.0123  0.0151 0.00393      0.0149 0.0132  0.0116 PAY_0, BILL…
 4 NNET      13 0.775 0.365 0.951     0.678 0.475 0.589    NA 0.0136  0.0152 0.00216      0.0144 0.0156  0.0123 PAY_0, BILL…
 5 NNET      14 0.774 0.377 0.949     0.679 0.485 0.598    NA 0.0117  0.0186 0.00353      0.0159 0.0176  0.0145 PAY_0, BILL…
 6 NNET      16 0.774 0.376 0.947     0.668 0.481 0.597    NA 0.0131  0.0132 0.00310      0.0126 0.0121  0.0102 PAY_0, BILL…
 7 NNET      17 0.772 0.362 0.950     0.673 0.471 0.586    NA 0.0101  0.0242 0.00364      0.0202 0.0238  0.0193 PAY_0, BILL…
 8 NNET      11 0.771 0.349 0.953     0.678 0.461 0.577    NA 0.0133  0.0129 0.00356      0.0123 0.0111  0.0100 PAY_0, BILL…
 9 NNET      18 0.770 0.365 0.950     0.673 0.473 0.589    NA 0.00974 0.0175 0.00413      0.0183 0.0169  0.0139 PAY_0, BILL…
10 RF        18 0.770 0.378 0.947     0.669 0.483 0.598     3 0.0124  0.0188 0.00311      0.0168 0.0183  0.0148 PAY_0, BILL…
# ℹ 26 more rows
# ℹ 12 more variables: Usa_SMOTENC <lgl>, Fase_Protocolo <chr>, CV_Folds <dbl>, CV_Repeats <dbl>, Origem <chr>,
#   MelhorTopN_GLM <int>, MelhorTopN_XGBoost <int>, sigma <dbl>, C <dbl>, size <dbl>, decay <dbl>, bag <lgl>
# ℹ Use `print(n = ...)` to see more rows
…
