…
ROC was used to select the optimal model using the largest value.
The final values used for the model were alpha = 0.25 and lambda = 0.001.
   alpha lambda
26  0.25  0.001
# A tibble: 23 × 3
   Variavel_Original Importancia Posicao
   <chr>                   <dbl>   <int>
 1 PAY_0                  0.650        1
 2 BILL_AMT1              0.243        2
 3 PAY_AMT2               0.205        3
 4 PAY_AMT1               0.152        4
 5 EDUCATION              0.136        5
 6 PAY_2                  0.105        6
 7 BILL_AMT3              0.101        7
 8 LIMIT_BAL              0.100        8
 9 PAY_3                  0.0898       9
10 PAY_AMT4               0.0807      10
# ℹ 13 more rows
# ℹ Use `print(n = ...)` to see more rows
…
